{
  "projectFactors" : {
    "howManyQATesters" : {
      "id" : "howManyQATesters",
      "category" : null,
      "name" : "How Many QA Testers?",
      "description" : "pleaseInsertDescriptionHere",
      "choices" : [ ],
      "choice" : 0,
      "value" : "0",
      "bottomRange" : 0,
      "topRange" : 0,
      "text" : null
    },
    "remoteStyle" : {
      "id" : "remoteStyle",
      "category" : null,
      "name" : "Remote Workers: How much do people work remotely?",
      "description" : "pleaseInsertDescriptionHere",
      "choices" : [ "Not allowed", "Some work remotely but most work from the office 100% of the time", "Many people work remotely for some of the week.", "We have no offices. Everyone works remotely." ],
      "choice" : 1,
      "value" : null,
      "bottomRange" : 0,
      "topRange" : 0,
      "text" : null
    },
    "hireVsExtend" : {
      "id" : "hireVsExtend",
      "category" : null,
      "name" : "Hiring vs Extend Schedule - What generator should do if inadequate resources are specified",
      "description" : "pleaseInsertDescriptionHere",
      "choices" : [ "Fail, abort", "Extend schedule in time until tasks are complete", "Hire new resources, adding the hiring itself as additional tasks", "Hire new resources, making them appear magically without additional hiring tasks" ],
      "choice" : 1,
      "value" : null,
      "bottomRange" : 0,
      "topRange" : 0,
      "text" : null
    },
    "fundingTightLoose" : {
      "id" : "fundingTightLoose",
      "category" : null,
      "name" : "Funding: Tight vs Loose",
      "description" : "pleaseInsertDescriptionHere",
      "choices" : [ "Our founder borrowed $50k from his grandmother last week.", "We are established but not cash flush.", "We can get the funding, if are willing to fight for it.", "No problems here. Plenty-o-cash" ],
      "choice" : 1,
      "value" : null,
      "bottomRange" : 0,
      "topRange" : 0,
      "text" : null
    },
    "howManyOpsEngineers" : {
      "id" : "howManyOpsEngineers",
      "category" : null,
      "name" : "How Many Ops Engineers?",
      "description" : "pleaseInsertDescriptionHere",
      "choices" : [ ],
      "choice" : 0,
      "value" : "0",
      "bottomRange" : 0,
      "topRange" : 0,
      "text" : null
    },
    "averageYearsExperience" : {
      "id" : "averageYearsExperience",
      "category" : null,
      "name" : "Average Years of Experience",
      "description" : "pleaseInsertDescriptionHere",
      "choices" : [ ],
      "choice" : 0,
      "value" : "5",
      "bottomRange" : 0,
      "topRange" : 0,
      "text" : null
    },
    "testingStyle" : {
      "id" : "testingStyle",
      "category" : null,
      "name" : "Testing Practices",
      "description" : "pleaseInsertDescriptionHere",
      "choices" : [ "Our customers can be counted on to tell us if something is broken", "Our devs are pros, certainly they would test their own work?", "We have a testing department that does our testing for us!", "We run junit before we commit our code. Some code is tested.", "All code is regression tested before it is committed, and run w every build" ],
      "choice" : 1,
      "value" : null,
      "bottomRange" : 0,
      "topRange" : 0,
      "text" : null
    },
    "javaModularityStyle" : {
      "id" : "javaModularityStyle",
      "category" : null,
      "name" : "Modularity of Java CodeBase",
      "description" : "pleaseInsertDescriptionHere",
      "choices" : [ "Big Ball of Mud - Standard Java", "Separate Code Modules/Projects Deployed as Independent Jars", "Some experimentation with OSGi", "Veteran OSGi Shop" ],
      "choice" : 1,
      "value" : null,
      "bottomRange" : 0,
      "topRange" : 0,
      "text" : null
    },
    "persistenceIndex" : {
      "id" : "persistenceIndex",
      "category" : null,
      "name" : "Persistence Flexibility",
      "description" : "pleaseInsertDescriptionHere",
      "choices" : [ "We persist everything in flat files", "We use Oracle for everything", "We use a mix of relational databases (SQL)", "We are experimenting with some NoSQL", "We use a sophisticated, fearless mix of whatever the best technology is for the purpose. Hadoop, Cassandra, you name it" ],
      "choice" : 1,
      "value" : null,
      "bottomRange" : 0,
      "topRange" : 0,
      "text" : null
    },
    "budgetWindow" : {
      "id" : "budgetWindow",
      "category" : null,
      "name" : "Project Budget in Months: How many months is this project being budgeted for in this schedule?",
      "description" : "pleaseInsertDescriptionHere",
      "choices" : [ "6 Months. Get it done in 6 months. Don't worry about anything after that.", "12 Months. Get it done in 12 months. Don't worry about anything after that", "1/5 Years. Get it done in 1 year. Maintain it for another 5 after that", "1/10 Years. Get it done in 1 year. Maintain it for another 10 after that" ],
      "choice" : 1,
      "value" : null,
      "bottomRange" : 0,
      "topRange" : 0,
      "text" : null
    },
    "requestsScale" : {
      "id" : "requestsScale",
      "category" : null,
      "name" : "Scale of requests - public facing servers",
      "description" : "pleaseInsertDescriptionHere",
      "choices" : [ "Thousands per hour, one medium size server should do", "Millions - need several servers", "Zillions - need a server farm", "QuadZillions - must scale up and down infinitely to meet demand" ],
      "choice" : 1,
      "value" : null,
      "bottomRange" : 0,
      "topRange" : 0,
      "text" : null
    },
    "processRigor" : {
      "id" : "processRigor",
      "category" : null,
      "name" : "Process Rigor",
      "description" : "pleaseInsertDescriptionHere",
      "choices" : [ "People work. That is rigorous enough.", "We have our way of doing things. It is expected that one follows these ways", "Process taken seriously around here. For example, developers are expected to write regression tests.", "We follow a rigid ThoughtWorks like model. Pair programming, testing, CD, the works. No one gets to do it their way instead" ],
      "choice" : 1,
      "value" : null,
      "bottomRange" : 0,
      "topRange" : 0,
      "text" : null
    },
    "staffingStyle" : {
      "id" : "staffingStyle",
      "category" : null,
      "name" : "Staffing Policies - Starvation vs Pile-On",
      "description" : "pleaseInsertDescriptionHere",
      "choices" : [ "We starve projects. Makes people work harder. Everyone is dying, which is good!", "We run a tight ship. Do your best, we'll adjust if we have to.", "Normal corporate Loose-Tight ambiguity", "We'd love to give you more people on your team, if only you would let us." ],
      "choice" : 1,
      "value" : null,
      "bottomRange" : 0,
      "topRange" : 0,
      "text" : null
    },
    "designStyle" : {
      "id" : "designStyle",
      "category" : null,
      "name" : "Design First vs Just Do It",
      "description" : "pleaseInsertDescriptionHere",
      "choices" : [ "0% - Our programmers design every UI, every process - they are professionals, after all", "25% - We have meetings sometimes, and design is discussed in a cursory way", "50% - Rebecca oversees design, and meets with programmers", "100% - No code is written without a design, first. We have a published design standards that are rigorously enforced" ],
      "choice" : 1,
      "value" : null,
      "bottomRange" : 0,
      "topRange" : 0,
      "text" : null
    },
    "hiringStyle" : {
      "id" : "hiringStyle",
      "category" : null,
      "name" : "Hiring Style",
      "description" : "pleaseInsertDescriptionHere",
      "choices" : [ "We hire friends of team", "We interview a couple folks first", "We have a formal process, tests, interviews", "Ridiculously extensive process, very low turnover after hired" ],
      "choice" : 1,
      "value" : null,
      "bottomRange" : 0,
      "topRange" : 0,
      "text" : null
    },
    "consensusStyle" : {
      "id" : "consensusStyle",
      "category" : null,
      "name" : "Consensus Style",
      "description" : "pleaseInsertDescriptionHere",
      "choices" : [ "We had a meeting last year about something. Can't remember what.", "Sometimes management suggests we have meetings to work out problems.", "We regularly meet to review coming decisions, designs", "Nothing proceeds forward without hours, days of meetings first" ],
      "choice" : 1,
      "value" : null,
      "bottomRange" : 0,
      "topRange" : 0,
      "text" : null
    },
    "howManyDBAs" : {
      "id" : "howManyDBAs",
      "category" : null,
      "name" : "How Many Database Admins?",
      "description" : "pleaseInsertDescriptionHere",
      "choices" : [ ],
      "choice" : 0,
      "value" : "0",
      "bottomRange" : 0,
      "topRange" : 0,
      "text" : null
    },
    "nihIndex" : {
      "id" : "nihIndex",
      "category" : null,
      "name" : "NIH Index: Not Invented Here - How much do we re-invent what is already available and excellent.",
      "description" : "pleaseInsertDescriptionHere",
      "choices" : [ "Nothing is good enough. Easier to re-invent our own frameworks, thank you very much.", "Depends on the group involved, there is no consistency.", "We always practice 'Proudly Invented Elsewhere' wherever reasonable", "If it doesn't come shrink wrapped and commercially supported, we don't use it" ],
      "choice" : 1,
      "value" : null,
      "bottomRange" : 0,
      "topRange" : 0,
      "text" : null
    },
    "operationalStyle" : {
      "id" : "operationalStyle",
      "category" : null,
      "name" : "Operational vs Analytic",
      "description" : "pleaseInsertDescriptionHere",
      "choices" : [ "This project is operational data. Everything is a transaction, every detail must be bulletproof.", "This project is a mix of operational and analytic data, but mostly operational", "This project is a mix of analytic and operational data, but mostly analytic", "This project is analytical data. General trends are the big win. Algorithms are for speed, not accuracy." ],
      "choice" : 1,
      "value" : null,
      "bottomRange" : 0,
      "topRange" : 0,
      "text" : null
    },
    "howManyBAs" : {
      "id" : "howManyBAs",
      "category" : null,
      "name" : "How Many Business Analysts?",
      "description" : "pleaseInsertDescriptionHere",
      "choices" : [ ],
      "choice" : 0,
      "value" : "0",
      "bottomRange" : 0,
      "topRange" : 0,
      "text" : null
    },
    "howManyDevelopers" : {
      "id" : "howManyDevelopers",
      "category" : null,
      "name" : "How Many Developers?",
      "description" : "pleaseInsertDescriptionHere",
      "choices" : [ ],
      "choice" : 0,
      "value" : "0",
      "bottomRange" : 0,
      "topRange" : 0,
      "text" : null
    },
    "apiRequired" : {
      "id" : "apiRequired",
      "category" : null,
      "name" : "API - Does this project require a portion of it's API to be exposed for direct access?",
      "description" : "pleaseInsertDescriptionHere",
      "choices" : [ "No", "A small part of the API must be exposed", "Almost all of the API must be exposed", "The project takes no actions except through it's exposed API" ],
      "choice" : 1,
      "value" : null,
      "bottomRange" : 0,
      "topRange" : 0,
      "text" : null
    },
    "tasksVsRoles" : {
      "id" : "tasksVsRoles",
      "category" : null,
      "name" : "Task vs Roles - How Much Do People Hide Behind Roles?",
      "description" : "pleaseInsertDescriptionHere",
      "choices" : [ "If a person is at their desk, their role on this team is fulfilled.", "People get their job done, that is what is important.", "We're agile. Everyone is always tasked with specific responsibilities.", "There are no roles. We are a task based shop." ],
      "choice" : 1,
      "value" : null,
      "bottomRange" : 0,
      "topRange" : 0,
      "text" : null
    },
    "qualityStyle" : {
      "id" : "qualityStyle",
      "category" : null,
      "name" : "Quality Scale",
      "description" : "pleaseInsertDescriptionHere",
      "choices" : [ "Production? Prototype? Proof of Concept? What's the difference? ", "Our projects mostly work well, eventually.", "We have tough standards.", "NASA launch software couldn't be more bulletproof." ],
      "choice" : 1,
      "value" : null,
      "bottomRange" : 0,
      "topRange" : 0,
      "text" : null
    },
    "softwareLife" : {
      "id" : "softwareLife",
      "category" : null,
      "name" : "Lifetime of this Software - How Long Will This Software Be Maintained",
      "description" : "pleaseInsertDescriptionHere",
      "choices" : [ "Who cares? Just get the damned prototype working, and quickly, too!", "We're not sure, just do the best you can. We'll worry about that next year.", "This is a 3-5 year project. Expect to maintain this for that period of time", "This project is our company's lifeblood and will be maintained for decades." ],
      "choice" : 1,
      "value" : null,
      "bottomRange" : 0,
      "topRange" : 0,
      "text" : null
    },
    "implicitExplicit" : {
      "id" : "implicitExplicit",
      "category" : null,
      "name" : "Implicit vs Explicit Schemas (Schema On Read vs Schema on Write)",
      "description" : "pleaseInsertDescriptionHere",
      "choices" : [ "We write code. I don't even know what you are talking about.", "Our relational database is our schema", "Mixed - we have some NoSQL and some of that is is Schema on Read", "Schema on Read - We use [Avro, other] for every piece of data anywhere." ],
      "choice" : 1,
      "value" : null,
      "bottomRange" : 0,
      "topRange" : 0,
      "text" : null
    },
    "cdStyle" : {
      "id" : "cdStyle",
      "category" : null,
      "name" : "Continuous Delivery Practices",
      "description" : "pleaseInsertDescriptionHere",
      "choices" : [ "One of our architects went to a Continuous Delivery presentation once", "We have a Hudson server that a developer set up a couple years ago", "We use our Jenkins server to run our unit tests", "All of our releases are built from our Bamboo server and deployed in production" ],
      "choice" : 1,
      "value" : null,
      "bottomRange" : 0,
      "topRange" : 0,
      "text" : null
    },
    "dataScale" : {
      "id" : "dataScale",
      "category" : null,
      "name" : "Scale of Data - What are the data persistence server requirements?",
      "description" : "pleaseInsertDescriptionHere",
      "choices" : [ "Departmental - The data could fit in a single modestly sized server", "Impressive - The data could fit in a single, honkingly large server", "Clustered - The data would require multiple servers some kind of cluster arrangement", "WebScale - Requires an infinitely expandable array of servers" ],
      "choice" : 1,
      "value" : null,
      "bottomRange" : 0,
      "topRange" : 0,
      "text" : null
    },
    "howManyUIDesigners" : {
      "id" : "howManyUIDesigners",
      "category" : null,
      "name" : "How Many UI Designers",
      "description" : "pleaseInsertDescriptionHere",
      "choices" : [ ],
      "choice" : 0,
      "value" : "0",
      "bottomRange" : 0,
      "topRange" : 0,
      "text" : null
    },
    "whichLanguagesThisProject" : {
      "id" : "whichLanguagesThisProject",
      "category" : null,
      "name" : "Which Languages This Project?",
      "description" : "pleaseInsertDescriptionHere",
      "choices" : [ ],
      "choice" : 0,
      "value" : "Java JavaScript",
      "bottomRange" : 0,
      "topRange" : 0,
      "text" : null
    },
    "cultureType" : {
      "id" : "cultureType",
      "category" : null,
      "name" : "Type of Culture",
      "description" : "pleaseInsertDescriptionHere",
      "choices" : [ "Laid back style - Bring your dog, work 6 hours or so, go to the brew pub.", "Normal corporate culture", "Older guys nobody questions anything, but almost all solid hitters", "Top dollar Ivy League graduates 60 hours week of test driven culture" ],
      "choice" : 1,
      "value" : null,
      "bottomRange" : 0,
      "topRange" : 0,
      "text" : null
    },
    "isomorphismAuto" : {
      "id" : "isomorphismAuto",
      "category" : null,
      "name" : "Isomorphic Automation - Degree that team automates isomporphic code operations",
      "description" : "pleaseInsertDescriptionHere",
      "choices" : [ "What does isomorphic mean?", "We use the IDE to automate some processes, which gives us a boost", "We use grails, rails, hibernate, or similar tools on some projects", "If it's isomporphic, we automate it. We train for this, internally." ],
      "choice" : 1,
      "value" : null,
      "bottomRange" : 0,
      "topRange" : 0,
      "text" : null
    },
    "domainSampleSet" : {
      "id" : "domainSampleSet",
      "category" : null,
      "name" : "Domain Sample Set",
      "description" : "pleaseInsertDescriptionHere",
      "choices" : [ "Retail Orders", "Manufacturing Line", "Web Traffic Monitor", "Social Graph" ],
      "choice" : 1,
      "value" : null,
      "bottomRange" : 0,
      "topRange" : 0,
      "text" : null
    },
    "containerModularityStyle" : {
      "id" : "containerModularityStyle",
      "category" : null,
      "name" : "Service Modularity Practices",
      "description" : "pleaseInsertDescriptionHere",
      "choices" : [ "So exactly what do you mean by 'service', anyway?", "Separate services installed on various servers", "We use a service bus", "Every service is on it's own [Docker?] container(s)" ],
      "choice" : 1,
      "value" : null,
      "bottomRange" : 0,
      "topRange" : 0,
      "text" : null
    },
    "pleaseInsertDescriptionHere" : {
      "id" : "degreeDataCustomization",
      "category" : null,
      "name" : "Degree of Customization Required Between Persistence and Display of Tabular Data",
      "description" : "pleaseInsertDescriptionHere",
      "choices" : [ ],
      "choice" : 0,
      "value" : null,
      "bottomRange" : 0,
      "topRange" : 0,
      "text" : null
    },
    "howManyManagers" : {
      "id" : "howManyManagers",
      "category" : null,
      "name" : "How Many Managers/Directors?",
      "description" : "pleaseInsertDescriptionHere",
      "choices" : [ ],
      "choice" : 0,
      "value" : "0",
      "bottomRange" : 0,
      "topRange" : 0,
      "text" : null
    },
    "accountabilityStyle" : {
      "id" : "accountabilityStyle",
      "category" : null,
      "name" : "Accountability Style",
      "description" : "pleaseInsertDescriptionHere",
      "choices" : [ "No one is held accountable for anything. People could get their feelings hurt.", "It's a mixed bag here. Everyone genuinely wants to do their best.", "It's a tough environment here. You are expected to get your stuff done, period.", "Even if it takes 15 times, your code may not be committed until it passes rigorous, detailed code reviews." ],
      "choice" : 1,
      "value" : null,
      "bottomRange" : 0,
      "topRange" : 0,
      "text" : null
    },
    "internalMessaging" : {
      "id" : "internalMessaging",
      "category" : null,
      "name" : "Internal Messaging",
      "description" : "pleaseInsertDescriptionHere",
      "choices" : [ "All language based synchronous - Project uses internal language APIs to communicate internally, such as with the JVM", "Mixed, mostly synchronous - Hetorogenous messaging used to communicate internally, most of it is synchronous", "Aggressive asynchronous but mixed - Hetorogenous messaging trending towards aggressive on the asynchronous side.", "Asynchronous Homogenous - such as everything happens via a Kafka buffered message" ],
      "choice" : 1,
      "value" : null,
      "bottomRange" : 0,
      "topRange" : 0,
      "text" : null
    },
    "budgetingStyle" : {
      "id" : "budgetingStyle",
      "category" : null,
      "name" : "Budgeting Policies",
      "description" : "pleaseInsertDescriptionHere",
      "choices" : [ "One dime over budget and the director is fired, on the spot.", "Things are serious. A budget is pretty much what you get to spend.", "Better not go over budget, you'll have to fight for extra cash if you need it.", "Just tell us if this isn't enough, we'll increase the budget as needed." ],
      "choice" : 1,
      "value" : null,
      "bottomRange" : 0,
      "topRange" : 0,
      "text" : null
    },
    "marketStatus" : {
      "id" : "marketStatus",
      "category" : null,
      "name" : "Status of the Market for Technical Talent",
      "description" : "pleaseInsertDescriptionHere",
      "choices" : [ "We have dozens of applicants for every opening.", "Things are in equilibrium. We can generally find good people, given the time.", "Things are tough here. We really have to grind to find good applicants.", "We have openings for months with no qualified applicants" ],
      "choice" : 1,
      "value" : null,
      "bottomRange" : 0,
      "topRange" : 0,
      "text" : null
    },
    "operationsScale" : {
      "id" : "operationsScale",
      "category" : null,
      "name" : "Scale of Data Operations - Background processing and grinding of data",
      "description" : "pleaseInsertDescriptionHere",
      "choices" : [ "None - this project uses whatever data it is given.", "Minimal - this project creates some materialized views, not much more than that.", "Some - this project does some degree of background processing with the data received, before it can be consumed.", "Extensive - this project requires extensive processing of data after it is received, and before it can be consumed." ],
      "choice" : 1,
      "value" : null,
      "bottomRange" : 0,
      "topRange" : 0,
      "text" : null
    },
    "documentationStyle" : {
      "id" : "documentationStyle",
      "category" : null,
      "name" : "Documentation Style",
      "description" : "pleaseInsertDescriptionHere",
      "choices" : [ "Yeah, we're gonna do that someday", "Some code had some documentation written about it", "We have a wiki, lots of people use it when they need to document something", "No code goes to production without rigorous documenation against several checklists" ],
      "choice" : 1,
      "value" : null,
      "bottomRange" : 0,
      "topRange" : 0,
      "text" : null
    },
    "projectBudgetMonths" : {
      "id" : "projectBudgetMonths",
      "category" : null,
      "name" : "Project Budget Scope",
      "description" : "pleaseInsertDescriptionHere",
      "choices" : [ "6 months - This schedule budgets for the first 6 months", "12 months - This schedule budgets for the first 12 months", "2 years - This schedule budgets for the first 2 years of the project", "5 years - This schedule budgets for the first 5 years of the project" ],
      "choice" : 1,
      "value" : null,
      "bottomRange" : 0,
      "topRange" : 0,
      "text" : null
    }
  },
  "categories" : null
}