{
	"projectFactors":{
		"howManyOpsEngineers":{
			"id":"howManyOpsEngineers",
			"category":"teamComposition",
			"name":"How Many Ops Engineers?",
			"description":"Size of the initial Ops team. See teamExpandability question for more insight on this",
			"choices":[
				
			],
			"choice":0,
			"text":null,
			"value":"1",
			"bottomRange":0,
			"topRange":0
		},
		"howManyDevelopers":{
			"id":"howManyDevelopers",
			"category":"teamComposition",
			"name":"How Many Developers?",
			"description":"Size of the initial Dev team. See teamExpandability question for more insight on this",
			"choices":[
				
			],
			"choice":0,
			"text":null,
			"value":"3",
			"bottomRange":0,
			"topRange":0
		},
		"howManyManagers":{
			"id":"howManyManagers",
			"category":"teamComposition",
			"name":"How Many Managers/Directors?",
			"description":"Size of the initial Management team. See teamExpandability question for more insight on this",
			"choices":[
				
			],
			"choice":0,
			"text":null,
			"value":"0",
			"bottomRange":0,
			"topRange":0
		},
		"howManyUIDesigners":{
			"id":"howManyUIDesigners",
			"category":"teamComposition",
			"name":"How Many UI Designers",
			"description":"Size of the initial UIDesign team. See teamExpandability question for more insight on this",
			"choices":[
				
			],
			"choice":0,
			"text":null,
			"value":"0",
			"bottomRange":0,
			"topRange":0
		},
		"howManyQATesters":{
			"id":"howManyQATesters",
			"category":"teamComposition",
			"name":"How Many QA Testers?",
			"description":"Size of the initial QA-Test team. See teamExpandability question for more insight on this",
			"choices":[
				
			],
			"choice":0,
			"text":null,
			"value":"0",
			"bottomRange":0,
			"topRange":0
		},
		"howManyBAs":{
			"id":"howManyBAs",
			"category":"teamComposition",
			"name":"How Many Business Analysts?",
			"description":"Size of the initial Business Analyst team. See teamExpandability question for more insight on this",
			"choices":[
				
			],
			"choice":0,
			"text":null,
			"value":"0",
			"bottomRange":0,
			"topRange":0
		},
		"howManyDBAs":{
			"id":"howManyDBAs",
			"category":"teamComposition",
			"name":"How Many Database Admins?",
			"description":"Size of the initial DBA team. See teamExpandability question for more insight on this",
			"choices":[
				
			],
			"choice":0,
			"text":null,
			"value":"0",
			"bottomRange":0,
			"topRange":0
		},
		"averageYearsExperience":{
			"id":"averageYearsExperience",
			"category":"teamComposition",
			"name":"Average Years of Experience",
			"description":"In this generator, the more experience, the less time allocated to specific tasks. This is not always an appropriate heuristic, but you have to start somewhere",
			"choices":[
				
			],
			"choice":0,
			"text":null,
			"value":"5",
			"bottomRange":0,
			"topRange":0
		},
		"hiringStyle":{
			"id":"hiringStyle",
			"category":"teamComposition",
			"name":"Hiring Style",
			"description":"If your schedule also has to include hiring staff, then the generator needs to know how hard you are willing to work in order to accomplish that. Answers to this question add increasingly more work to the hiring process.<br><br>Obviously you may get a better result from the additional work, so the generator may or may not add more time to some tasks as a result.",
			"choices":[
				"We hire friends of team",
				"We interview a couple folks first",
				"We have a formal process, tests, interviews",
				"Ridiculously extensive process, very low turnover after hired"
			],
			"choice":1,
			"text":null,
			"value":null,
			"bottomRange":0,
			"topRange":0
		},
		"hireVsExtend":{
			"id":"hireVsExtend",
			"category":"teamComposition",
			"name":"Hiring vs Extend Schedule - What generator should do if inadequate resources are specified",
			"description":"This instructs the project generator how to proceed if you start out with inadequate number of resources.",
			"choices":[
				"Fail, abort",
				"Extend schedule in time until tasks are complete",
				"Hire new resources, adding the hiring itself as additional tasks",
				"Hire new resources, making them appear magically without additional hiring tasks"
			],
			"choice":1,
			"text":null,
			"value":null,
			"bottomRange":0,
			"topRange":0
		},
		"whatHappensWhenNeedMoreResources":{
			"id":"whatHappensWhenNeedMoreResources",
			"category":"teamComposition",
			"name":"What happens when more resources are required than provided?",
			"description":"Every shop has it's own way of dealing with manpower shortages.<br><br>This tool takes your answer to this and other related questions and attempts a very crude approximation of how your answers work together to increase or decrease tasks and resultant workload.<br><br>See also questions about hire vs extend, Culture Bias and Size/Scale which also might affect the tasks generated",
			"choices":[
				"If not budgeted for, work simply doesn't get done",
				"Additional workload simply goes to the existing developers",
				"Additional workload goes first to other roles if they exist, developer if not",
				"All new roles hired as required, interviews and related tasks made a part of project"
			],
			"choice":1,
			"text":null,
			"value":null,
			"bottomRange":0,
			"topRange":0
		},
		"hireVsExtend":{
			"id":"hireVsExtend",
			"category":"teamComposition",
			"name":"Hiring vs Extend Schedule - What generator should do if inadequate resources are specified",
			"description":"Also related to the question about 'What happens when more resources?'<br><br>This tells both the generator, and later the task stacker, whether and how to either let a project fail or alternately keep adding staff as additional resources are needed.<br><br>This tool is very crude in it's handling of this data, but that's OK because the 'Mythical Man Month' and other aspects of software development make a more nuanced heuristic almost useless anyway.",
			"choices":[
				"Project is allowed to fail.",
				"Extend schedule in time, until tasks are complete",
				"Hire new resources, adding the hiring itself as additional tasks",
				"Hire new resources, making them appear magically without additional related tasks such as interviewing"
			],
			"choice":1,
			"text":null,
			"value":null,
			"bottomRange":0,
			"topRange":0
		},
		"marketStatus":{
			"id":"marketStatus",
			"category":"teamComposition",
			"name":"Status of the Market for Technical Talent",
			"description":"See also questions about hire vs extend, and What happens when more resources are required?<br><br>This tool adds more time to the hiring related tasks, when those tasks are added to the project profile.<br><br>All the usual warnings about the crude nature of this tool apply here.",
			"choices":[
				"We have dozens of applicants for every opening.",
				"Things are in equilibrium. We can generally find good people, given the time.",
				"Things are tough here. We really have to grind to find good applicants.",
				"We have openings for months with no qualified applicants"
			],
			"choice":1,
			"text":null,
			"value":null,
			"bottomRange":0,
			"topRange":0
		},
		"staffingStyle":{
			"id":"staffingStyle",
			"category":"teamComposition",
			"name":"Staffing Policies - Starvation vs Pile-On",
			"description":"Staffing style seems static in most organizations but if you move between different shops you begin to see how it differs greatly, and how that affects schedules.<br><br>This tool adds time to both extremes of behavior, in a crude attempt to approximate the effect of management resource starvation.<br><br>Management by Starvation of Resources makes tasks go faster in this tool, but then later in the project, tasks are added to fix all the stuff that got glossed over. The opposite extreme just adds time to the initial tasks, as work seems to expand to fit the time allotted.<br><br>In real life, not tools like this, there is magic to the management of resources and how tasks are related. A tool like this could not generate the realistic effects of such magic, perhaps you'd have to adjust the generated schedule yourself, manually, or adjust the code that this tool generates with.",
			"choices":[
				"We starve projects. Makes people work harder. Everyone is dying, which is good!",
				"We run a tight ship. Do your best, we'll adjust if we have to.",
				"Normal corporate Loose-Tight ambiguity",
				"We'd love to give you more people on your team, if only you would let us."
			],
			"choice":1,
			"text":null,
			"value":null,
			"bottomRange":0,
			"topRange":0
		},
		"dataDesign":{
			"id":"dataDesign",
			"category":"appFeatures",
			"name":"Data Design: Have the data structures been designed and perfected yet?",
			"description":"Data schemas are usually an iterative process, but until this process is complete, there is constant churn in every piece of code that flows downstream from the schema. In an ideal world, not one single line of code would be written before the Business Analyst role is finished with the absolute final iteration of the data schema or structure.",
			"choices":[
				"We do the best we can - meaning that it changes constantly until the app is version 1.0",
				"We always claim that every revision is the last schema revision that will be allowed for this project.",
				"Our Business Analysts are experienced domain experts and properly funded, so they do pretty well at nailing this down first.",
				"Critical code is automated from the schemas, so changes are rarely a costly affair."
			],
			"choice":1,
			"text":null,
			"value":null,
			"bottomRange":0,
			"topRange":0
		},
		"uiDesign":{
			"id":"uiDesign",
			"category":"appFeatures",
			"name":"UI Design: How is the UI designed?",
			"description":"",
			"choices":[
				"We use whatever UI our Grails/Rails/Other tooling provides us",
				"Our developers do the UI, and that is what we release.",
				"Our developers come up with initial designs which are improved upon, in meetings with others",
				"Design is the work of UI Designers, who then work with developers to bring it into reality"
			],
			"choice":1,
			"text":null,
			"value":null,
			"bottomRange":0,
			"topRange":0
		},
		"implicitExplicit":{
			"id":"implicitExplicit",
			"category":"appFeatures",
			"name":"Implicit vs Explicit Schemas (Schema On Read vs Schema on Write)",
			"description":"This question should be ignored by most shops, it is set here for future scheduling effects.<br><br>'Schema on Read' is a newer concept just now beginning to be understood in the software markeplace. What it implies is that the entire process of writing software can morph dramatically when code isn't tightly coupled to a specific schema, but instead some portion of code is actually flexible, and morphs to fit the schema that is provided when the data is read. These effects are both nifty-keeno and also mind boggling, so not much addressed here.<br><br>This generator will only add time to the schedule if this option increases, even though in future years the effect of this option might go in the opposite direction.<br><br>There is a whole school of thought which says that given sufficient information, (not just straight schema) much of the code we now write would never have to be written, but instead the application figures out what to do from the information when it gets it. Tooling such as ORM or Rails/Grails has hinted at this for years, as has the countering antagonism charging that ORM is the Vietnam of software development practices. Lots of reasons to like it, lots of reasons to hate it",
			"choices":[
				"We write code. I don't even know what you are talking about.",
				"Our relational database is our schema",
				"Mixed - we have some NoSQL and some of that is is Schema on Read",
				"Schema on Read - We use [Avro, other] for every piece of data anywhere."
			],
			"choice":1,
			"text":null,
			"value":null,
			"bottomRange":0,
			"topRange":0
		},
		"domainSampleSet":{
			"id":"domainSampleSet",
			"category":"appFeatures",
			"name":"Domain Sample Set",
			"description":"Populates the Domain Table Names text-area below with appropriate table names.<br><br>Or, if you wish to choose your own domain take the custom option and type in your own free-hand",
			"choices":[
				"Retail Orders",
				"Inventory",
				"Manufacturing",
				"Real Estate",
				"Education",
				"Insurance",
				"Human Resource Dept",
				"Social Media",
				"Logistics",
				"Medical",
				"my own custom domain"
			],
			"choice":2,
			"text":null,
			"value":null,
			"bottomRange":0,
			"topRange":0
		},
		"domainTableNames":{
			"id":"domainTableNames",
			"category":"appFeatures",
			"name":"Domain Table Names",
			"description":"Table names, one line per table, no spaces in table names, charachters only<br><br>On the face of it, population of these table/model names has no other affect than the naming of tasks that are generated for each additional table or model.<br><br>Mathematically, the generated schedule would be exactly the same if they were named 'Table1' and 'Table2' etc, but by using more realistic table names it gives you the ability to make later manual adjustments to a generated schedule with the appropriate table or model names.",
			"choices":null,
			"choice":0,
			"text":"not null",
			"value":null,
			"bottomRange":0,
			"topRange":0
		},
		"domainModelCount":{
			"id":"domainModelCount",
			"category":"appFeatures",
			"name":"Number of Tables or Models from 1-25",
			"description":"Use this to dial down count of models from 25 to a more representative number. Peels off models from the bottom of the list shown",
			"choices":[
				
			],
			"choice":25,
			"text":null,
			"value":null,
			"bottomRange":1,
			"topRange":25
		},
		"softwareProcesses":{
			"id":"softwareProcesses",
			"category":"appFeatures",
			"name":"Software Phases",
			"description":"Phases or Process Stages - Check or uncheck as fits your shop's management style.<br><br> CAUTION: The effect of unchecking a phase may not be as direct as one might guess. This generator is crude, so it could interpret a lack of a phase as some work will not be undertaken in this schedule, or alternately that the work would be taken but done in a different phase.<br><br>One example would be the failure to provide for a design phase. In that instance, the work doesn't really go away, it just shifts to the developer when he goes to write the code.<br><br>Both this projectProfile generator, and the subsequent runs of the project stacker, should make an interpretation as to the effect of these phases. But don't count on them as being accurate for a real schedule, you'd have to look for yourself at the generated schedules and come to your own conclusions.",
			"choices":[
				"Initiation",
				"System Concept Development",
				"Planning",
				"Requirements Analysis",
				"Design",
				"Development",
				"Integeration Testing",
				"Implementation",
				"Operations Maintenance",
				"Disposition"
			],
			"choice":5,
			"text":"not null",
			"value":null,
			"bottomRange":0,
			"topRange":0
		},
		"operationalStyle":{
			"id":"operationalStyle",
			"category":"appFeatures",
			"name":"Operational vs Analytic",
			"description":"Until recently, virtually all software was operational. If you had a program that dealt with a bank balance or even inventory level, it better be right, no matter what.<br><br>Recently, with the advent of 'Big Data' analytics, it has become commonplace for the enterprise to ask questions like this: <br><br>'Hey, what's the current inventory level, more or less? I uncerstand that this won't be exact, but that's OK, just give me your best guess for the moment...'<br><br>This is sometimes called 'Analytical' data, which is just a fancy name for best guess being good enough.",
			"choices":[
				"This project is operational data. Everything is a transaction, every detail must be bulletproof.",
				"This project is a mix of operational and analytic data, but mostly operational",
				"This project is a mix of analytic and operational data, but mostly analytic",
				"This project is analytical data. General trends are the big win. Algorithms are for speed, not accuracy."
			],
			"choice":1,
			"text":null,
			"value":null,
			"bottomRange":0,
			"topRange":0
		},
		"accountabilityStyle":{
			"id":"accountabilityStyle",
			"category":"cultureBias",
			"name":"Accountability Style",
			"description":"Accountability Style is related to many other aspects such as would be found in Culture Bias.<br><br>At first blush one might set simply set the generator to add more time to the schedule where no drill sargeant was there to hurry people along. But that would make this generator overly simplified.<br><br>There really are shops where people are actually very nice to each other, yet at the same time your code might flunk a code review a dozen times before it is committed to the project.<br><br>What this generator does is still over-simplified it adds lots of time to either extreme - both high and low accountability styles, but in different phases of the project. The results would vary dramatically, especially as a qualitative measure. <br><br>Enterprises which have stringent code reviews might have lower Total Costs of Ownership but much higher development costs. But they might have dramatically greater customer satisfaction indexes as well.",
			"choices":[
				"No one is held accountable for anything. People could get their feelings hurt.",
				"It's a mixed bag here. Everyone genuinely wants to do their best.",
				"It's a tough environment here. You are expected to get your stuff done, period.",
				"Even if it takes 15 times, your code may not be committed until it passes rigorous, detailed code reviews."
			],
			"choice":1,
			"text":null,
			"value":null,
			"bottomRange":0,
			"topRange":0
		},
		"agileDefinedAs":{
			"id":"agileDefinedAs",
			"category":"cultureBias",
			"name":"Agile Definition Within Our Organization",
			"description":"The early days of Agile made it a very stringent process, almost nothing like what is often regarded as Agile in the 2015 enterprise software shop. <br><br>What this generator does is attempt to add crude amounts of time for different interpretations of Agile. Looser interpretations add time to the end of the project to fix problems caused by lax attitudes and a lack of discipline blamed on Agile. Tighter interpretions add time caused by a rigid approach, even though there might be a lower Total Cost of Ownership on long lived projects.",
			"choices":[
				"Anything Goes: No one is accountable for anything. Have standups, strut and look lively.",
				"Looks Good: We have a formal scrum master who uses agile tools and assigns tasks to individuals.",
				"Structured: Processes followed to a degree, metrics maintained, accountability to stories and metrics",
				"Over the Top: Tail wags dog so much that we might as well be doing waterfall. We even pair program ugh"
			],
			"choice":0,
			"text":null,
			"value":null,
			"bottomRange":0,
			"topRange":0
		},
		"isomorphismAuto":{
			"id":"isomorphismAuto",
			"category":"cultureBias",
			"name":"Isomorphic Automation - Degree that team automates isomporphic code operations",
			"description":"This question can and probably should be left alone and set to default by most organizations.<br><br>Most shops think of code as a static quantity - you've either written the necessary code or you haven't. The idea that much code might never need to even be written is brash, if not plain ridiculous.<br><br>Selecting the higher levels causes the generator to add more time to design tasks, add additional tasks to separate isomorphic areas, and reduce time for coding of other tasks.",
			"choices":[
				"What does isomorphic mean?",
				"We use the IDE to automate some processes, which gives us a boost",
				"We use grails, rails, hibernate, or similar tools on some projects",
				"If it's isomporphic, we automate it. We train for this, internally."
			],
			"choice":1,
			"text":null,
			"value":null,
			"bottomRange":0,
			"topRange":0
		},
		"fundingTightLoose":{
			"id":"fundingTightLoose",
			"category":"cultureBias",
			"name":"Funding: Tight vs Loose",
			"description":"Operating under the constraints of tight funding is a special circumstance more similar to illusion and magic than a maintainable state. Prototypes and 'happy path', in this case, are an art form, and building for anything beyond this afternoon's release is not considered. The opposite is enterprise software which would simply kill off an entire customer base if not done right. Most of us develop to one or another side of the middle.",
			"choices":[
				"Our founder borrowed $50k from his grandmother last week.",
				"We are established but not cash flush.",
				"We can get the funding, if are willing to fight for it.",
				"No problems here. Plenty-o-cash"
			],
			"choice":1,
			"text":null,
			"value":null,
			"bottomRange":0,
			"topRange":0
		},
		"qualityStyle":{
			"id":"qualityStyle",
			"category":"cultureBias",
			"name":"Quality Scale",
			"description":"In concert with other questions, adds or subtracts from task lengths.<br><br> Some answers here may conflict with some other choices made later below, such as NASA quality on a tight budget, or with laid back work style, which might not work.",
			"choices":[
				"Production? Prototype? Proof of Concept? What's the difference? ",
				"Our projects mostly work well, eventually.",
				"We have tough standards.",
				"NASA launch software couldn't be more bulletproof."
			],
			"choice":1,
			"text":null,
			"value":null,
			"bottomRange":0,
			"topRange":0
		},
		"cultureType":{
			"id":"cultureType",
			"category":"cultureBias",
			"name":"Type of Culture",
			"description":"Laid back adds time to some tasks. Middle two answers currently have no effect. <br><br>The last option subtracts time from some tasks.",
			"choices":[
				"Laid back style - Bring your dog, work 6 hours or so, go to the brew pub.",
				"Normal corporate culture",
				"Older guys nobody questions anything, but almost all solid hitters",
				"Top dollar Ivy League graduates 60 hours week of test driven culture"
			],
			"choice":1,
			"text":null,
			"value":null,
			"bottomRange":0,
			"topRange":0
		},
		"remoteStyle":{
			"id":"remoteStyle",
			"category":"cultureBias",
			"name":"Remote Workers: How much do people work remotely?",
			"description":"This is a projectProfile marker only, for later use, and has no effect on the schedule generated",
			"choices":[
				"Not allowed",
				"Some work remotely but most work from the office 100% of the time",
				"Many people work remotely for some of the week.",
				"We have no offices. Everyone works remotely."
			],
			"choice":1,
			"text":null,
			"value":null,
			"bottomRange":0,
			"topRange":0
		},
		"processRigor":{
			"id":"processRigor",
			"category":"cultureBias",
			"name":"Process Rigor",
			"description":"First answer adds some time to project, same as Laid Back style in 'Type of Culture' above<br>br>Last answer adds time to the project as well, but at least with this option you get something back for the time that it adds.",
			"choices":[
				"People work. That is rigorous enough.",
				"We have our way of doing things. It is expected that one follows these ways",
				"Process taken seriously around here. For example, developers are expected to write regression tests.",
				"We follow a rigid ThoughtWorks like model. Pair programming, testing, CD, the works. No one gets to do it their way instead"
			],
			"choice":1,
			"text":null,
			"value":null,
			"bottomRange":0,
			"topRange":0
		},
		"designStyle":{
			"id":"designStyle",
			"category":"cultureBias",
			"name":"Design First vs Just Do It",
			"description":"'Failure to plan ahead in your case does not constitute an emergency in mine!' except for here, of course, because the developer is now a UI designer, planner, etc.<br><br> Don't worry, the developer won't mind, he didn't want the direction anyway. But this generator will plug in some time for adjustments after the customer sees it for the first time. ",
			"choices":[
				"0% - Our programmers design every UI, every process - they are professionals, after all",
				"25% - We have meetings sometimes, and design is discussed in a cursory way",
				"50% - Rebecca oversees design, and meets with programmers",
				"100% - No code is written without a design, first. We have a published design standards that are rigorously enforced"
			],
			"choice":1,
			"text":null,
			"value":null,
			"bottomRange":0,
			"topRange":0
		},
		"nihIndex":{
			"id":"nihIndex",
			"category":"cultureBias",
			"name":"NIH Index: Not Invented Here - How much do we re-invent what is already available and excellent.",
			"description":"Depending on other factors such as how tight the budget, first answers here will automagically generate tasks for re-inventing one or more tools that you would otherwise be able to pick up off the shelf in much better form. Nothing is more consistent than a developer's need to re-invent. If given the chance, he will.",
			"choices":[
				"Nothing is good enough. Easier to re-invent our own frameworks, thank you very much.",
				"Depends on the group involved, there is no consistency.",
				"We always practice 'Proudly Invented Elsewhere' wherever reasonable",
				"If it doesn't come shrink wrapped and commercially supported, we don't use it"
			],
			"choice":1,
			"text":null,
			"value":null,
			"bottomRange":0,
			"topRange":0
		},
		"consensusStyle":{
			"id":"consensusStyle",
			"category":"cultureBias",
			"name":"Consensus Style",
			"description":"First choice will result in longer tasks, as people work to overcome what would be easier to work out in advance by just talking about it. Last choice ill end up with shorter tasks but lots of meetings being put on the schedule.",
			"choices":[
				"We had a meeting last year about something. Can't remember what.",
				"Sometimes management suggests we have meetings to work out problems.",
				"We regularly meet to review coming decisions, designs",
				"Nothing proceeds forward without hours, days of meetings first"
			],
			"choice":1,
			"text":null,
			"value":null,
			"bottomRange":0,
			"topRange":0
		},
		"cdStyle":{
			"id":"cdStyle",
			"category":"cultureBias",
			"name":"Continuous Delivery Practices",
			"description":"The 'Continuous Delivery' book is 400 pages, so we're summarizing it's effect here as a 4 point grading system??? Are you kidding me?<br><br>Better answers cause shorter tasks, but add tasks for setup at the front end.",
			"choices":[
				"One of our architects went to a Continuous Delivery presentation once",
				"We have a Hudson server that a developer set up a couple years ago",
				"We use our Jenkins server to run our unit tests",
				"All of our releases are built from our Bamboo server and deployed in production"
			],
			"choice":1,
			"text":null,
			"value":null,
			"bottomRange":0,
			"topRange":0
		},
		"tasksVsRoles":{
			"id":"tasksVsRoles",
			"category":"cultureBias",
			"name":"Task vs Roles - How Much Do People Hide Behind Roles?",
			"description":"In combination with loose budgets and the right culture, answers to this question might double the length of a schedule?",
			"choices":[
				"If a person is at their desk, their role on this team is fulfilled.",
				"People get their job done, that is what is important.",
				"We're agile. Everyone is always tasked with specific responsibilities.",
				"There are no roles. We are a task based shop."
			],
			"choice":1,
			"text":null,
			"value":null,
			"bottomRange":0,
			"topRange":0
		},
		"budgetingStyle":{
			"id":"budgetingStyle",
			"category":"cultureBias",
			"name":"Budgeting Policies",
			"description":"This is a data point only, saved for later. Not yet sure what should be done with it.",
			"choices":[
				"One dime over budget and the director is fired, on the spot.",
				"Things are serious. A budget is pretty much what you get to spend.",
				"Better not go over budget, you'll have to fight for extra cash if you need it.",
				"Just tell us if this isn't enough, we'll increase the budget as needed."
			],
			"choice":1,
			"text":null,
			"value":null,
			"bottomRange":0,
			"topRange":0
		},
		"documentationStyle":{
			"id":"documentationStyle",
			"category":"technologyBaseline",
			"name":"Documentation Style",
			"description":"How much documentation is regularly done for projects in your shop?<br><br>If it's too low, but the project has no life after development, no one cares. If the project has a maintenance phase and there is no documentation, then the generator adds time to the maintenance phase to figure stuff out after the fact.<br><br>If documentation is part of the protocol, then time is added for those tasks.",
			"choices":[
				"Yeah, we're gonna do that someday",
				"Some code had some documentation written about it",
				"We have a wiki, lots of people use it when they need to document something",
				"No code goes to production without rigorous documenation against several checklists"
			],
			"choice":1,
			"text":null,
			"value":null,
			"bottomRange":0,
			"topRange":0
		},
		"whichLanguagesThisProject":{
			"id":"whichLanguagesThisProject",
			"category":"technologyBaseline",
			"name":"Which Languages This Project?",
			"description":"This is currently a no-op, so the answers to this question have no effect.",
			"choices":[
				
			],
			"choice":0,
			"text":null,
			"value":"Java JavaScript",
			"bottomRange":0,
			"topRange":0
		},
		"testingStyle":{
			"id":"testingStyle",
			"category":"technologyBaseline",
			"name":"Testing Practices",
			"description":"First two answers add no time for testing, but plenty of tasks for fixing things later. In combination with Continuous Delivery, the last two options add time to development, but yield less time in maintenance and fix tasks.",
			"choices":[
				"Our customers can be counted on to tell us if something is broken.",
				"Our devs use the 'Act Surprised' method, and fix anything that someone can prove really is broken.",
				"We run junit before we commit our code. Some code is tested.",
				"All code is regression tested before it is committed, and run w every build"
			],
			"choice":1,
			"text":null,
			"value":null,
			"bottomRange":0,
			"topRange":0
		},
		"testingTeam":{
			"id":"testingTeam",
			"category":"technologyBaseline",
			"name":"Testing By Who?",
			"description":"Who does the actual testing? Is it all devs, or all QUTeam, or all of the above?",
			"choices":[
				"Only developers do testing",
				"Only QA team does testing",
				"There is a QA team, but responsibilities for testing are somewhat ill defined.",
				"Devs and QA team each have rigorously enforced and overlapping responsibilities."
			],
			"choice":1,
			"text":null,
			"value":null,
			"bottomRange":0,
			"topRange":0
		},
		
		"persistenceIndex":{
			"id":"persistenceIndex",
			"category":"technologyBaseline",
			"name":"Persistence Flexibility",
			"description":"Everything but the second and third answer takes more time. Scale is affected elsewhere of course, but that's a different issue.",
			"choices":[
				"We persist everything in flat files",
				"We use Oracle for everything",
				"We use a mix of relational databases (SQL)",
				"We are experimenting with some NoSQL",
				"We use a sophisticated, fearless mix of whatever the best technology is for the purpose. Hadoop, Cassandra, you name it"
			],
			"choice":1,
			"text":null,
			"value":null,
			"bottomRange":0,
			"topRange":0
		},
		"containerModularityStyle":{
			"id":"containerModularityStyle",
			"category":"technologyBaseline",
			"name":"Service Modularity Practices",
			"description":"For SMOSLT projects, this is better calculated as a later option than an initial project setting. In most cases this question can be left at default, and does not apply. In unusual cases, services are broken apart and installed on a service bus as distinct. In extreme cases, such as is now the trend in some bleeding edge shops, every service is effectively given it's own 'server' in the form of a linux container such as Docker provides, or it is even theoretically possible that servers can be entirely separate vms or boxes. If you chose the last two - at least in 2015, it should have the effect of adding significant amount of time in the form of tasks to break apart services and deploy them on separate services. ",
			"choices":[
				"So exactly what do you mean by 'service', anyway?",
				"Separate services installed on various servers",
				"We use a service bus",
				"Every service is on it's own [Docker?] container(s)"
			],
			"choice":1,
			"text":null,
			"value":null,
			"bottomRange":0,
			"topRange":0
		},
		"javaModularityStyle":{
			"id":"javaModularityStyle",
			"category":"technologyBaseline",
			"name":"Modularity of Java CodeBase",
			"description":"OSGi and the coming JigSaw feature allows for modules to operate in separate classpaths and thus avoid 'jar hell' within a JVM. This was one of the early approaches to solving the 'Big Ball of Mud Pattern' problem.<br><br> Since it's advent it has attracted little but scorn by most java developers largely because the solution is often more difficult to deal with than the problem it fixes. <br><br> Also see another question above, 'containerModularityStyle' which addresses some of the same concerns via a completely different paradigm<br><br>The author of SMOSLT is a big believer in OSGi despite it's unpopularity and gangliness, and has had much success in implementing it on personal projects. Despite this fact, more OSGi adds, rather than subtracts time from a projectProfile, because of it's absolute lack of cultural acceptance at almost every level.",
			"choices":[
				"Big Ball of Mud - Standard Java",
				"Separate Code Modules/Projects Deployed as Independent Jars",
				"Some experimentation with OSGi",
				"Veteran OSGi Shop"
			],
			"choice":1,
			"text":null,
			"value":null,
			"bottomRange":0,
			"topRange":0
		},
		"internalMessaging":{
			"id":"internalMessaging",
			"category":"technologyBaseline",
			"name":"Internal Messaging",
			"description":"Ingore this question and take the default if your app uses a single database and a single codebase running on one or more middle tier servers. <br><br>If you have a more complex app with multiple servers and multiple data stores, the generator needs to make some approximations of tasks for passing of messages between different components of the app.<br><br>In the most complex situations this work is sophisticated and potentially bleeding edge",
			"choices":[
				"All language based synchronous - Project uses internal language APIs to communicate internally, such as with the JVM",
				"Mixed, mostly synchronous - Hetorogenous messaging used to communicate internally, most of it is synchronous",
				"Aggressive asynchronous but mixed - Hetorogenous messaging trending towards aggressive on the asynchronous side.",
				"Asynchronous Homogenous - such as everything happens via a Kafka buffered message"
			],
			"choice":1,
			"text":null,
			"value":null,
			"bottomRange":0,
			"topRange":0
		},
		"budgetWindow":{
			"id":"budgetWindow",
			"category":"sizeScale",
			"name":"Project Budget in Months: How many months is this project being budgeted for in this schedule?",
			"description":"This sets the initial months only, other factors below determine whether this is extended or forms a hard limit",
			"choices":[
				"6 Months. Get it done in 6 months. Don't worry about anything after that.",
				"12 Months. Get it done in 12 months. Don't worry about anything after that",
				"1/5 Years. Get it done in 1 year. Maintain it for another 5 after that",
				"1/10 Years. Get it done in 1 year. Maintain it for another 10 after that"
			],
			"choice":1,
			"text":null,
			"value":null,
			"bottomRange":0,
			"topRange":0
		},
		"apiRequired":{
			"id":"apiRequired",
			"category":"sizeScale",
			"name":"API - Does this project require a portion of it's API to be exposed for direct access?",
			"description":"For SMOSLT projects, this is better calculated as a later option than an initial project setting. If this is already a normal practice in your shop, choose on of the harder options. These options create extra tasks for exposing and ",
			"choices":[
				"No",
				"A small part of the API must be exposed",
				"Almost all of the API must be exposed",
				"The project takes no actions except through it's exposed API"
			],
			"choice":1,
			"text":null,
			"value":null,
			"bottomRange":0,
			"topRange":0
		},
		"softwareLife":{
			"id":"softwareLife",
			"category":"sizeScale",
			"name":"Lifetime of this Software - How Long Will This Software Be Maintained",
			"description":"Last two answers extend the project beyond initial development and deployment times",
			"choices":[
				"Who cares? Just get the damned prototype working, and quickly, too!",
				"We're not sure, just do the best you can. We'll worry about that next year.",
				"This is a 3-5 year project. Expect to maintain this for that period of time",
				"This project is our company's lifeblood and will be maintained for decades."
			],
			"choice":1,
			"text":null,
			"value":null,
			"bottomRange":0,
			"topRange":0
		},
		"requestsScale":{
			"id":"requestsScale",
			"category":"sizeScale",
			"name":"Scale of requests - public facing servers",
			"description":"This area is not fully formed in the generator, so for the time being, crude tasks are added to the higher answers to approximate additional work required.",
			"choices":[
				"Thousands per hour, one medium size server should do",
				"Millions - need several servers",
				"Zillions - need a server farm",
				"QuadZillions - must scale up and down infinitely to meet demand"
			],
			"choice":1,
			"text":null,
			"value":null,
			"bottomRange":0,
			"topRange":0
		},
		"dataScale":{
			"id":"dataScale",
			"category":"sizeScale",
			"name":"Scale of Data - What are the data persistence server requirements?",
			"description":"This area is not fully formed in the generator, so for the time being, crude tasks are added to the higher answers to approximate additional work required.",
			"choices":[
				"Departmental - The data could fit in a single modestly sized server",
				"Impressive - The data could fit in a single, honkingly large server",
				"Clustered - The data would require multiple servers some kind of cluster arrangement",
				"WebScale - Requires an infinitely expandable array of servers"
			],
			"choice":1,
			"text":null,
			"value":null,
			"bottomRange":0,
			"topRange":0
		},
		"projectBudgetMonths":{
			"id":"projectBudgetMonths",
			"category":"sizeScale",
			"name":"Project Budget Scope",
			"description":"In combination with other answers the answers to this question may cause a project to not generate, or alternately go out of budget or out of schedule.",
			"choices":[
				"6 months - This schedule budgets for the first 6 months",
				"12 months - This schedule budgets for the first 12 months",
				"2 years - This schedule budgets for the first 2 years of the project",
				"5 years - This schedule budgets for the first 5 years of the project"
			],
			"choice":1,
			"text":null,
			"value":null,
			"bottomRange":0,
			"topRange":0
		},
		"operationsScale":{
			"id":"operationsScale",
			"category":"sizeScale",
			"name":"Scale of Data Operations - Background processing and grinding of data",
			"description":"Some applications require background grinding of data, creating new data from existing data, as opposed to simply providing a differen query view of the same data. This work is provided for here.",
			"choices":[
				"None - this project uses whatever data it is given.",
				"Minimal - this project creates some materialized views, not much more than that.",
				"Some - this project does some degree of background processing with the data received, before it can be consumed.",
				"Extensive - this project requires extensive processing of data after it is received, and before it can be consumed."
			],
			"choice":1,
			"text":null,
			"value":null,
			"bottomRange":0,
			"topRange":0
		},
		"degreeDataCustomization":{
			"id":"degreeDataCustomization",
			"category":"sizeScale",
			"name":"Degree of Customization Required Between Persistence and Display of Tabular Data",
			"description":"If your application just uses whatever data it is given, without transforming it or even advanced multitable queries, then leave it at o. Few apps would fit the default profile, though.",
			"choices":[
				
			],
			"choice":0,
			"text":null,
			"value":null,
			"bottomRange":0,
			"topRange":100
		}
		
	},
	"categories":{
		"teamComposition":"Team Composition: What is the composition of the team and how is it allowed to grow?",
		"appFeatures":"App Features: Basic features of this application or project",
		"cultureBias":"Cultural Bias: What is the nature of this team's cultural/habitual bias",
		"technologyBaseline":"Technology Baseline: What is the baseline for this project and or our shop before considering options?",
		"sizeScale":"Size, Scale: What kind of scale does this application and it's components have to reach?"
	}
}